@startuml

actor sysadmin
participant bemerge
participant beadm
participant "package manager" as pkg

sysadmin -> beadm : create


sysadmin -> bemerge : sync
bemerge -> beadm : mount
bemerge -> pkg : sync
bemerge -> beadm : unmount

sysadmin -> bemerge : upgrade
bemerge -> beadm : mount
group system update
    bemerge -> pkg : upgrade
    loop for every package
        pkg -> beadm : snapshot
        pkg -> pkg : upgrade package
    end
else most recent package install failed
    bemerge --> sysadmin : error
else all packages installed successfully
    bemerge -> beadm : unmount
    bemerge --> sysadmin : ok
end

@enduml
